[gd_scene load_steps=2 format=2]

[ext_resource path="res://black_background.png" type="Texture" id=1]

[node name="ParallaxBackground" type="ParallaxBackground"]

[node name="Sprite" type="Sprite" parent="."]
position = Vector2( 0, -1.05264 )
texture = ExtResource( 1 )
centered = false
__meta__ = {
"_edit_lock_": true
}
