[gd_scene load_steps=5 format=2]

[ext_resource path="res://UI.gd" type="Script" id=1]
[ext_resource path="res://Fonts/Retron2000.ttf" type="DynamicFontData" id=2]

[sub_resource type="DynamicFont" id=1]
size = 8
font_data = ExtResource( 2 )

[sub_resource type="Animation" id=2]
resource_name = "fade_out"
tracks/0/type = "bezier"
tracks/0/path = NodePath("UnlockToast:modulate:r")
tracks/0/interp = 1
tracks/0/loop_wrap = true
tracks/0/imported = false
tracks/0/enabled = true
tracks/0/keys = {
"points": PoolRealArray(  ),
"times": PoolRealArray(  )
}
tracks/1/type = "bezier"
tracks/1/path = NodePath("UnlockToast:modulate:g")
tracks/1/interp = 1
tracks/1/loop_wrap = true
tracks/1/imported = false
tracks/1/enabled = true
tracks/1/keys = {
"points": PoolRealArray(  ),
"times": PoolRealArray(  )
}
tracks/2/type = "bezier"
tracks/2/path = NodePath("UnlockToast:modulate:b")
tracks/2/interp = 1
tracks/2/loop_wrap = true
tracks/2/imported = false
tracks/2/enabled = true
tracks/2/keys = {
"points": PoolRealArray(  ),
"times": PoolRealArray(  )
}
tracks/3/type = "bezier"
tracks/3/path = NodePath("UnlockToast:modulate:a")
tracks/3/interp = 1
tracks/3/loop_wrap = true
tracks/3/imported = false
tracks/3/enabled = true
tracks/3/keys = {
"points": PoolRealArray( 1, -0.25, 0, 0.25, 0, 0, -0.25, 0, 0.25, 0 ),
"times": PoolRealArray( 0, 1 )
}

[node name="UI" type="CanvasLayer"]
script = ExtResource( 1 )

[node name="UnlockToast" type="Label" parent="."]
margin_left = 12.0
margin_top = 6.0
margin_right = 501.0
margin_bottom = 142.0
custom_fonts/font = SubResource( 1 )
align = 1
autowrap = true

[node name="AnimationPlayer" type="AnimationPlayer" parent="."]
anims/fade_out = SubResource( 2 )
